0 info it worked if it ends with ok
1 verbose cli [ '/usr/local/bin/node', '/usr/local/bin/npm', 'install' ]
2 info using npm@3.9.5
3 info using node@v6.2.2
4 silly loadCurrentTree Starting
5 silly install loadCurrentTree
6 silly install readLocalPackageData
7 silly install normalizeTree
8 silly loadCurrentTree Finishing
9 silly loadIdealTree Starting
10 silly install loadIdealTree
11 silly cloneCurrentTree Starting
12 silly install cloneCurrentTreeToIdealTree
13 silly cloneCurrentTree Finishing
14 silly loadShrinkwrap Starting
15 silly install loadShrinkwrap
16 silly loadShrinkwrap Finishing
17 silly loadAllDepsIntoIdealTree Starting
18 silly install loadAllDepsIntoIdealTree
19 silly fetchNamedPackageData canvas
20 silly mapToRegistry name canvas
21 silly mapToRegistry using default registry
22 silly mapToRegistry registry https://registry.npmjs.org/
23 silly mapToRegistry data Result {
23 silly mapToRegistry   raw: 'canvas',
23 silly mapToRegistry   scope: null,
23 silly mapToRegistry   name: 'canvas',
23 silly mapToRegistry   rawSpec: '',
23 silly mapToRegistry   spec: 'latest',
23 silly mapToRegistry   type: 'tag' }
24 silly mapToRegistry uri https://registry.npmjs.org/canvas
25 verbose request uri https://registry.npmjs.org/canvas
26 verbose request no auth needed
27 info attempt registry request try #1 at 10:31:40 AM
28 verbose request id e081e1fb1c447928
29 http request GET https://registry.npmjs.org/canvas
30 http 200 https://registry.npmjs.org/canvas
31 verbose headers { 'content-type': 'application/json; charset=UTF-8',
31 verbose headers   server: 'UploadServer',
31 verbose headers   'cache-control': 'max-age=300',
31 verbose headers   'last-modified': 'Thu, 22 Mar 2018 19:54:56 GMT',
31 verbose headers   etag: '"5ab40a10-31b79"',
31 verbose headers   'x-npm-region': 'EU-East',
31 verbose headers   'content-encoding': 'gzip',
31 verbose headers   'content-length': '22790',
31 verbose headers   'accept-ranges': 'bytes',
31 verbose headers   date: 'Tue, 10 Apr 2018 08:31:41 GMT',
31 verbose headers   via: '1.1 varnish',
31 verbose headers   age: '12483',
31 verbose headers   connection: 'keep-alive',
31 verbose headers   'x-served-by': 'cache-hhn1548-HHN',
31 verbose headers   'x-cache': 'HIT',
31 verbose headers   'x-cache-hits': '2',
31 verbose headers   'x-timer': 'S1523349101.152715,VS0,VE0',
31 verbose headers   vary: 'Accept-Encoding, Accept' }
32 silly get cb [ 200,
32 silly get   { 'content-type': 'application/json; charset=UTF-8',
32 silly get     server: 'UploadServer',
32 silly get     'cache-control': 'max-age=300',
32 silly get     'last-modified': 'Thu, 22 Mar 2018 19:54:56 GMT',
32 silly get     etag: '"5ab40a10-31b79"',
32 silly get     'x-npm-region': 'EU-East',
32 silly get     'content-encoding': 'gzip',
32 silly get     'content-length': '22790',
32 silly get     'accept-ranges': 'bytes',
32 silly get     date: 'Tue, 10 Apr 2018 08:31:41 GMT',
32 silly get     via: '1.1 varnish',
32 silly get     age: '12483',
32 silly get     connection: 'keep-alive',
32 silly get     'x-served-by': 'cache-hhn1548-HHN',
32 silly get     'x-cache': 'HIT',
32 silly get     'x-cache-hits': '2',
32 silly get     'x-timer': 'S1523349101.152715,VS0,VE0',
32 silly get     vary: 'Accept-Encoding, Accept' } ]
33 verbose get saving canvas to /home/krm/.npm/registry.npmjs.org/canvas/.cache.json
34 verbose correctMkdir /home/krm/.npm correctMkdir not in flight; initializing
35 silly resolveWithNewModule canvas@1.6.10 checking installable status
36 silly cache add args [ 'canvas@1.6.x', null ]
37 verbose cache add spec canvas@1.6.x
38 silly cache add parsed spec Result {
38 silly cache add   raw: 'canvas@1.6.x',
38 silly cache add   scope: null,
38 silly cache add   name: 'canvas',
38 silly cache add   rawSpec: '1.6.x',
38 silly cache add   spec: '>=1.6.0 <1.7.0',
38 silly cache add   type: 'range' }
39 silly addNamed canvas@>=1.6.0 <1.7.0
40 verbose addNamed ">=1.6.0 <1.7.0" is a valid semver range for canvas
41 silly addNameRange { name: 'canvas', range: '>=1.6.0 <1.7.0', hasData: false }
42 silly mapToRegistry name canvas
43 silly mapToRegistry using default registry
44 silly mapToRegistry registry https://registry.npmjs.org/
45 silly mapToRegistry data Result {
45 silly mapToRegistry   raw: 'canvas',
45 silly mapToRegistry   scope: null,
45 silly mapToRegistry   name: 'canvas',
45 silly mapToRegistry   rawSpec: '',
45 silly mapToRegistry   spec: 'latest',
45 silly mapToRegistry   type: 'tag' }
46 silly mapToRegistry uri https://registry.npmjs.org/canvas
47 verbose addNameRange registry:https://registry.npmjs.org/canvas not in flight; fetching
48 verbose get https://registry.npmjs.org/canvas not expired, no request
49 silly addNameRange number 2 { name: 'canvas', range: '>=1.6.0 <1.7.0', hasData: true }
50 silly addNameRange versions [ 'canvas',
50 silly addNameRange   [ '0.0.1',
50 silly addNameRange     '0.0.2',
50 silly addNameRange     '0.0.3',
50 silly addNameRange     '0.0.4',
50 silly addNameRange     '0.0.5',
50 silly addNameRange     '0.0.6',
50 silly addNameRange     '0.0.7',
50 silly addNameRange     '0.0.8',
50 silly addNameRange     '0.1.0',
50 silly addNameRange     '0.2.0',
50 silly addNameRange     '0.2.1',
50 silly addNameRange     '0.3.0',
50 silly addNameRange     '0.3.1',
50 silly addNameRange     '0.3.2',
50 silly addNameRange     '0.3.3',
50 silly addNameRange     '0.4.0',
50 silly addNameRange     '0.4.1',
50 silly addNameRange     '0.4.2',
50 silly addNameRange     '0.4.3',
50 silly addNameRange     '0.5.0',
50 silly addNameRange     '0.5.1',
50 silly addNameRange     '0.5.2',
50 silly addNameRange     '0.5.3',
50 silly addNameRange     '0.5.4',
50 silly addNameRange     '0.6.0',
50 silly addNameRange     '0.7.0',
50 silly addNameRange     '0.7.1',
50 silly addNameRange     '0.7.2',
50 silly addNameRange     '0.7.3',
50 silly addNameRange     '0.8.0',
50 silly addNameRange     '0.8.1',
50 silly addNameRange     '0.8.2',
50 silly addNameRange     '0.8.3',
50 silly addNameRange     '0.9.0',
50 silly addNameRange     '0.10.0',
50 silly addNameRange     '0.10.1',
50 silly addNameRange     '0.10.2',
50 silly addNameRange     '0.10.3',
50 silly addNameRange     '0.11.0',
50 silly addNameRange     '0.11.1',
50 silly addNameRange     '0.11.2',
50 silly addNameRange     '0.11.3',
50 silly addNameRange     '0.12.0',
50 silly addNameRange     '0.12.1',
50 silly addNameRange     '0.13.0',
50 silly addNameRange     '0.13.1',
50 silly addNameRange     '1.0.0',
50 silly addNameRange     '1.0.1',
50 silly addNameRange     '1.0.2',
50 silly addNameRange     '1.0.3',
50 silly addNameRange     '1.0.4',
50 silly addNameRange     '1.1.0',
50 silly addNameRange     '1.1.1',
50 silly addNameRange     '1.1.2',
50 silly addNameRange     '1.1.3',
50 silly addNameRange     '1.1.4',
50 silly addNameRange     '1.1.5',
50 silly addNameRange     '1.1.6',
50 silly addNameRange     '1.2.0',
50 silly addNameRange     '1.2.1',
50 silly addNameRange     '1.2.2',
50 silly addNameRange     '1.2.3',
50 silly addNameRange     '1.2.4',
50 silly addNameRange     '1.2.5',
50 silly addNameRange     '1.2.6',
50 silly addNameRange     '1.2.7',
50 silly addNameRange     '1.2.8',
50 silly addNameRange     '1.2.9',
50 silly addNameRange     '1.2.10',
50 silly addNameRange     '1.2.11',
50 silly addNameRange     '1.3.0',
50 silly addNameRange     '1.3.1',
50 silly addNameRange     '1.3.2',
50 silly addNameRange     '1.3.3',
50 silly addNameRange     '1.3.4',
50 silly addNameRange     '1.3.5',
50 silly addNameRange     '1.3.6',
50 silly addNameRange     '1.3.7',
50 silly addNameRange     '1.3.8',
50 silly addNameRange     '1.3.9',
50 silly addNameRange     '1.3.10',
50 silly addNameRange     '1.3.11',
50 silly addNameRange     '1.3.12',
50 silly addNameRange     '1.3.13',
50 silly addNameRange     '1.3.14',
50 silly addNameRange     '1.3.15',
50 silly addNameRange     '1.3.16',
50 silly addNameRange     '1.4.0',
50 silly addNameRange     '1.5.0',
50 silly addNameRange     '1.6.0',
50 silly addNameRange     '1.6.1',
50 silly addNameRange     '1.6.2',
50 silly addNameRange     '1.6.3',
50 silly addNameRange     '1.6.4',
50 silly addNameRange     '1.6.5',
50 silly addNameRange     '2.0.0-alpha.1',
50 silly addNameRange     '2.0.0-alpha.2',
50 silly addNameRange     '1.6.6',
50 silly addNameRange     '2.0.0-alpha.3',
50 silly addNameRange     '2.0.0-alpha.4',
50 silly addNameRange     ... 12 more items ] ]
51 silly addNamed canvas@1.6.10
52 verbose addNamed "1.6.10" is a plain semver version for canvas
53 silly mapToRegistry name canvas
54 silly mapToRegistry using default registry
55 silly mapToRegistry registry https://registry.npmjs.org/
56 silly mapToRegistry data Result {
56 silly mapToRegistry   raw: 'canvas',
56 silly mapToRegistry   scope: null,
56 silly mapToRegistry   name: 'canvas',
56 silly mapToRegistry   rawSpec: '',
56 silly mapToRegistry   spec: 'latest',
56 silly mapToRegistry   type: 'tag' }
57 silly mapToRegistry uri https://registry.npmjs.org/canvas
58 verbose addRemoteTarball https://registry.npmjs.org/canvas/-/canvas-1.6.10.tgz not in flight; adding
59 verbose addRemoteTarball [ 'https://registry.npmjs.org/canvas/-/canvas-1.6.10.tgz',
59 verbose addRemoteTarball   'aa938354642e7d61479ae5a76373b3233d7bbac8' ]
60 info retry fetch attempt 1 at 10:31:41 AM
61 info attempt registry request try #1 at 10:31:41 AM
62 http fetch GET https://registry.npmjs.org/canvas/-/canvas-1.6.10.tgz
63 http fetch 200 https://registry.npmjs.org/canvas/-/canvas-1.6.10.tgz
64 silly fetchAndShaCheck shasum aa938354642e7d61479ae5a76373b3233d7bbac8
65 verbose addTmpTarball /tmp/npm-12488-ad3ae6a0/registry.npmjs.org/canvas/-/canvas-1.6.10.tgz not in flight; adding
66 verbose addTmpTarball already have metadata; skipping unpack for canvas@1.6.10
67 verbose correctMkdir /home/krm/.npm correctMkdir not in flight; initializing
68 silly cache afterAdd canvas@1.6.10
69 verbose afterAdd /home/krm/.npm/canvas/1.6.10/package/package.json not in flight; writing
70 verbose correctMkdir /home/krm/.npm correctMkdir not in flight; initializing
71 verbose afterAdd /home/krm/.npm/canvas/1.6.10/package/package.json written
72 silly fetchNamedPackageData nan
73 silly mapToRegistry name nan
74 silly mapToRegistry using default registry
75 silly mapToRegistry registry https://registry.npmjs.org/
76 silly mapToRegistry data Result {
76 silly mapToRegistry   raw: 'nan',
76 silly mapToRegistry   scope: null,
76 silly mapToRegistry   name: 'nan',
76 silly mapToRegistry   rawSpec: '',
76 silly mapToRegistry   spec: 'latest',
76 silly mapToRegistry   type: 'tag' }
77 silly mapToRegistry uri https://registry.npmjs.org/nan
78 verbose request uri https://registry.npmjs.org/nan
79 verbose request no auth needed
80 info attempt registry request try #1 at 10:31:41 AM
81 verbose etag "5aabecc7-229f2"
82 verbose lastModified Fri, 16 Mar 2018 16:11:51 GMT
83 http request GET https://registry.npmjs.org/nan
84 http 304 https://registry.npmjs.org/nan
85 verbose headers { date: 'Tue, 10 Apr 2018 08:31:41 GMT',
85 verbose headers   via: '1.1 varnish',
85 verbose headers   'cache-control': 'max-age=300',
85 verbose headers   etag: '"5aabecc7-229f2"',
85 verbose headers   age: '26',
85 verbose headers   connection: 'keep-alive',
85 verbose headers   'x-served-by': 'cache-hhn1548-HHN',
85 verbose headers   'x-cache': 'HIT',
85 verbose headers   'x-cache-hits': '2',
85 verbose headers   'x-timer': 'S1523349101.425177,VS0,VE0',
85 verbose headers   vary: 'Accept-Encoding, Accept' }
86 silly get cb [ 304,
86 silly get   { date: 'Tue, 10 Apr 2018 08:31:41 GMT',
86 silly get     via: '1.1 varnish',
86 silly get     'cache-control': 'max-age=300',
86 silly get     etag: '"5aabecc7-229f2"',
86 silly get     age: '26',
86 silly get     connection: 'keep-alive',
86 silly get     'x-served-by': 'cache-hhn1548-HHN',
86 silly get     'x-cache': 'HIT',
86 silly get     'x-cache-hits': '2',
86 silly get     'x-timer': 'S1523349101.425177,VS0,VE0',
86 silly get     vary: 'Accept-Encoding, Accept' } ]
87 verbose etag https://registry.npmjs.org/nan from cache
88 verbose get saving nan to /home/krm/.npm/registry.npmjs.org/nan/.cache.json
89 verbose correctMkdir /home/krm/.npm correctMkdir not in flight; initializing
90 silly resolveWithNewModule nan@2.10.0 checking installable status
91 silly cache add args [ 'nan@^2.4.0', null ]
92 verbose cache add spec nan@^2.4.0
93 silly cache add parsed spec Result {
93 silly cache add   raw: 'nan@^2.4.0',
93 silly cache add   scope: null,
93 silly cache add   name: 'nan',
93 silly cache add   rawSpec: '^2.4.0',
93 silly cache add   spec: '>=2.4.0 <3.0.0',
93 silly cache add   type: 'range' }
94 silly addNamed nan@>=2.4.0 <3.0.0
95 verbose addNamed ">=2.4.0 <3.0.0" is a valid semver range for nan
96 silly addNameRange { name: 'nan', range: '>=2.4.0 <3.0.0', hasData: false }
97 silly mapToRegistry name nan
98 silly mapToRegistry using default registry
99 silly mapToRegistry registry https://registry.npmjs.org/
100 silly mapToRegistry data Result {
100 silly mapToRegistry   raw: 'nan',
100 silly mapToRegistry   scope: null,
100 silly mapToRegistry   name: 'nan',
100 silly mapToRegistry   rawSpec: '',
100 silly mapToRegistry   spec: 'latest',
100 silly mapToRegistry   type: 'tag' }
101 silly mapToRegistry uri https://registry.npmjs.org/nan
102 verbose addNameRange registry:https://registry.npmjs.org/nan not in flight; fetching
103 verbose get https://registry.npmjs.org/nan not expired, no request
104 silly addNameRange number 2 { name: 'nan', range: '>=2.4.0 <3.0.0', hasData: true }
105 silly addNameRange versions [ 'nan',
105 silly addNameRange   [ '0.3.0-wip',
105 silly addNameRange     '0.3.0-wip2',
105 silly addNameRange     '0.3.0',
105 silly addNameRange     '0.3.1',
105 silly addNameRange     '0.3.2',
105 silly addNameRange     '0.4.0',
105 silly addNameRange     '0.4.1',
105 silly addNameRange     '0.4.2',
105 silly addNameRange     '0.4.3',
105 silly addNameRange     '0.4.4',
105 silly addNameRange     '0.5.0',
105 silly addNameRange     '0.5.1',
105 silly addNameRange     '0.5.2',
105 silly addNameRange     '0.6.0',
105 silly addNameRange     '0.7.0',
105 silly addNameRange     '0.7.1',
105 silly addNameRange     '0.8.0',
105 silly addNameRange     '1.0.0',
105 silly addNameRange     '1.1.0',
105 silly addNameRange     '1.1.1',
105 silly addNameRange     '1.1.2',
105 silly addNameRange     '1.2.0',
105 silly addNameRange     '1.3.0',
105 silly addNameRange     '1.4.0',
105 silly addNameRange     '1.4.1',
105 silly addNameRange     '1.5.0',
105 silly addNameRange     '1.4.2',
105 silly addNameRange     '1.4.3',
105 silly addNameRange     '1.5.1',
105 silly addNameRange     '1.5.2',
105 silly addNameRange     '1.6.0',
105 silly addNameRange     '1.5.3',
105 silly addNameRange     '1.6.1',
105 silly addNameRange     '1.6.2',
105 silly addNameRange     '1.7.0',
105 silly addNameRange     '1.8.0',
105 silly addNameRange     '1.8.1',
105 silly addNameRange     '1.8.2',
105 silly addNameRange     '1.8.3',
105 silly addNameRange     '1.8.4',
105 silly addNameRange     '1.9.0',
105 silly addNameRange     '2.0.0',
105 silly addNameRange     '2.0.1',
105 silly addNameRange     '2.0.2',
105 silly addNameRange     '2.0.3',
105 silly addNameRange     '2.0.4',
105 silly addNameRange     '2.0.5',
105 silly addNameRange     '2.0.6',
105 silly addNameRange     '2.0.7',
105 silly addNameRange     '2.0.8',
105 silly addNameRange     '2.0.9',
105 silly addNameRange     '2.1.0',
105 silly addNameRange     '2.2.0',
105 silly addNameRange     '2.2.1',
105 silly addNameRange     '2.3.0',
105 silly addNameRange     '2.3.1',
105 silly addNameRange     '2.3.2',
105 silly addNameRange     '2.3.3',
105 silly addNameRange     '2.3.4',
105 silly addNameRange     '2.3.5',
105 silly addNameRange     '2.4.0',
105 silly addNameRange     '2.5.0',
105 silly addNameRange     '2.5.1',
105 silly addNameRange     '2.6.0',
105 silly addNameRange     '2.6.1',
105 silly addNameRange     '2.6.2',
105 silly addNameRange     '2.7.0',
105 silly addNameRange     '2.8.0',
105 silly addNameRange     '2.9.1',
105 silly addNameRange     '2.9.2',
105 silly addNameRange     '2.10.0' ] ]
106 silly addNamed nan@2.10.0
107 verbose addNamed "2.10.0" is a plain semver version for nan
108 silly cache afterAdd nan@2.10.0
109 verbose afterAdd /home/krm/.npm/nan/2.10.0/package/package.json not in flight; writing
110 verbose correctMkdir /home/krm/.npm correctMkdir not in flight; initializing
111 verbose afterAdd /home/krm/.npm/nan/2.10.0/package/package.json written
112 silly loadAllDepsIntoIdealTree Finishing
113 silly idealTree:prePrune mimer-game-tools@0.0.1
113 silly idealTree:prePrune ├── canvas@1.6.10
113 silly idealTree:prePrune ├── colors@1.1.2
113 silly idealTree:prePrune ├── jpeg-js@0.3.4
113 silly idealTree:prePrune ├── moment@2.20.1
113 silly idealTree:prePrune ├── nan@2.10.0
113 silly idealTree:prePrune ├── opentype.js@0.4.11
113 silly idealTree:prePrune ├── pngjs@3.3.2
113 silly idealTree:prePrune └── pureimage@0.1.6
114 silly loadIdealTree Finishing
115 silly currentTree mimer-game-tools@0.0.1
115 silly currentTree ├── colors@1.1.2
115 silly currentTree ├── jpeg-js@0.3.4
115 silly currentTree ├── moment@2.20.1
115 silly currentTree ├── opentype.js@0.4.11
115 silly currentTree ├── pngjs@3.3.2
115 silly currentTree └── pureimage@0.1.6
116 silly idealTree mimer-game-tools@0.0.1
116 silly idealTree ├── canvas@1.6.10
116 silly idealTree ├── colors@1.1.2
116 silly idealTree ├── jpeg-js@0.3.4
116 silly idealTree ├── moment@2.20.1
116 silly idealTree ├── nan@2.10.0
116 silly idealTree ├── opentype.js@0.4.11
116 silly idealTree ├── pngjs@3.3.2
116 silly idealTree └── pureimage@0.1.6
117 silly generateActionsToTake Starting
118 silly install generateActionsToTake
119 silly generateActionsToTake Finishing
120 silly diffTrees action count 2
121 silly diffTrees add nan@2.10.0
122 silly diffTrees add canvas@1.6.10
123 silly decomposeActions action count 16
124 silly decomposeActions fetch nan@2.10.0
125 silly decomposeActions extract nan@2.10.0
126 silly decomposeActions test nan@2.10.0
127 silly decomposeActions preinstall nan@2.10.0
128 silly decomposeActions build nan@2.10.0
129 silly decomposeActions install nan@2.10.0
130 silly decomposeActions postinstall nan@2.10.0
131 silly decomposeActions finalize nan@2.10.0
132 silly decomposeActions fetch canvas@1.6.10
133 silly decomposeActions extract canvas@1.6.10
134 silly decomposeActions test canvas@1.6.10
135 silly decomposeActions preinstall canvas@1.6.10
136 silly decomposeActions build canvas@1.6.10
137 silly decomposeActions install canvas@1.6.10
138 silly decomposeActions postinstall canvas@1.6.10
139 silly decomposeActions finalize canvas@1.6.10
140 silly executeActions Starting
141 silly install executeActions
142 silly doSerial global-install 0
143 silly doParallel fetch 2
144 verbose correctMkdir /home/krm/.npm/_locks correctMkdir not in flight; initializing
145 verbose lock using /home/krm/.npm/_locks/staging-094b24b0207ef2cc.lock for /home/krm/dev/mimer-game-2018/tools/node_modules/.staging
146 silly doParallel extract 2
147 silly extract nan@2.10.0
148 silly extract canvas@1.6.10
149 verbose unbuild node_modules/.staging/nan-d8763590
150 verbose unbuild node_modules/.staging/canvas-2de4a29b
151 silly gentlyRm /home/krm/dev/mimer-game-2018/tools/node_modules/.staging/nan-d8763590 is being purged from base /home/krm/dev/mimer-game-2018/tools
152 verbose gentlyRm don't care about contents; nuking /home/krm/dev/mimer-game-2018/tools/node_modules/.staging/nan-d8763590
153 silly gentlyRm /home/krm/dev/mimer-game-2018/tools/node_modules/.staging/canvas-2de4a29b is being purged from base /home/krm/dev/mimer-game-2018/tools
154 verbose gentlyRm don't care about contents; nuking /home/krm/dev/mimer-game-2018/tools/node_modules/.staging/canvas-2de4a29b
155 verbose tar unpack /home/krm/.npm/nan/2.10.0/package.tgz
156 verbose tar unpacking to /home/krm/dev/mimer-game-2018/tools/node_modules/.staging/nan-d8763590
157 silly gentlyRm /home/krm/dev/mimer-game-2018/tools/node_modules/.staging/nan-d8763590 is being purged
158 verbose gentlyRm don't care about contents; nuking /home/krm/dev/mimer-game-2018/tools/node_modules/.staging/nan-d8763590
159 verbose tar unpack /home/krm/.npm/canvas/1.6.10/package.tgz
160 verbose tar unpacking to /home/krm/dev/mimer-game-2018/tools/node_modules/.staging/canvas-2de4a29b
161 silly gentlyRm /home/krm/dev/mimer-game-2018/tools/node_modules/.staging/canvas-2de4a29b is being purged
162 verbose gentlyRm don't care about contents; nuking /home/krm/dev/mimer-game-2018/tools/node_modules/.staging/canvas-2de4a29b
163 silly gunzTarPerm modes [ '755', '644' ]
164 silly gunzTarPerm modes [ '755', '644' ]
165 silly gunzTarPerm extractEntry package.json
166 silly gunzTarPerm modified mode [ 'package.json', 436, 420 ]
167 silly gunzTarPerm extractEntry package.json
168 silly gunzTarPerm extractEntry CHANGELOG.md
169 silly gunzTarPerm modified mode [ 'CHANGELOG.md', 436, 420 ]
170 silly gunzTarPerm extractEntry include_dirs.js
171 silly gunzTarPerm modified mode [ 'include_dirs.js', 436, 420 ]
172 silly gunzTarPerm extractEntry .travis.yml
173 silly gunzTarPerm extractEntry binding.gyp
174 silly gunzTarPerm extractEntry LICENSE.md
175 silly gunzTarPerm modified mode [ 'LICENSE.md', 436, 420 ]
176 silly gunzTarPerm extractEntry nan_callbacks_12_inl.h
177 silly gunzTarPerm modified mode [ 'nan_callbacks_12_inl.h', 436, 420 ]
178 silly gunzTarPerm extractEntry nan_callbacks_pre_12_inl.h
179 silly gunzTarPerm modified mode [ 'nan_callbacks_pre_12_inl.h', 436, 420 ]
180 silly gunzTarPerm extractEntry History.md
181 silly gunzTarPerm extractEntry index.js
182 silly gunzTarPerm extractEntry nan_callbacks.h
183 silly gunzTarPerm modified mode [ 'nan_callbacks.h', 436, 420 ]
184 silly gunzTarPerm extractEntry Readme.md
185 silly gunzTarPerm extractEntry .github/ISSUE_TEMPLATE.md
186 silly gunzTarPerm extractEntry nan_converters_43_inl.h
187 silly gunzTarPerm modified mode [ 'nan_converters_43_inl.h', 436, 420 ]
188 silly gunzTarPerm extractEntry nan_converters_pre_43_inl.h
189 silly gunzTarPerm modified mode [ 'nan_converters_pre_43_inl.h', 436, 420 ]
190 silly gunzTarPerm extractEntry .vscode/c_cpp_properties.json
191 silly gunzTarPerm extractEntry .vscode/settings.json
192 silly gunzTarPerm extractEntry lib/bindings.js
193 silly gunzTarPerm extractEntry lib/canvas.js
194 silly gunzTarPerm extractEntry nan_converters.h
195 silly gunzTarPerm modified mode [ 'nan_converters.h', 436, 420 ]
196 silly gunzTarPerm extractEntry nan_define_own_property_helper.h
197 silly gunzTarPerm modified mode [ 'nan_define_own_property_helper.h', 436, 420 ]
198 silly gunzTarPerm extractEntry lib/context2d.js
199 silly gunzTarPerm extractEntry lib/image.js
200 silly gunzTarPerm extractEntry nan_implementation_12_inl.h
201 silly gunzTarPerm modified mode [ 'nan_implementation_12_inl.h', 436, 420 ]
202 silly gunzTarPerm extractEntry nan_implementation_pre_12_inl.h
203 silly gunzTarPerm modified mode [ 'nan_implementation_pre_12_inl.h', 436, 420 ]
204 silly gunzTarPerm extractEntry nan_json.h
205 silly gunzTarPerm modified mode [ 'nan_json.h', 436, 420 ]
206 silly gunzTarPerm extractEntry nan_maybe_43_inl.h
207 silly gunzTarPerm modified mode [ 'nan_maybe_43_inl.h', 436, 420 ]
208 silly gunzTarPerm extractEntry lib/jpegstream.js
209 silly gunzTarPerm extractEntry lib/parse-font.js
210 silly gunzTarPerm extractEntry nan_maybe_pre_43_inl.h
211 silly gunzTarPerm modified mode [ 'nan_maybe_pre_43_inl.h', 436, 420 ]
212 silly gunzTarPerm extractEntry nan_new.h
213 silly gunzTarPerm modified mode [ 'nan_new.h', 436, 420 ]
214 silly gunzTarPerm extractEntry lib/pdfstream.js
215 silly gunzTarPerm extractEntry lib/pngstream.js
216 silly gunzTarPerm extractEntry nan_object_wrap.h
217 silly gunzTarPerm modified mode [ 'nan_object_wrap.h', 436, 420 ]
218 silly gunzTarPerm extractEntry nan_persistent_12_inl.h
219 silly gunzTarPerm modified mode [ 'nan_persistent_12_inl.h', 436, 420 ]
220 silly gunzTarPerm extractEntry src/Canvas.cc
221 silly gunzTarPerm extractEntry src/Canvas.h
222 silly gunzTarPerm extractEntry nan_persistent_pre_12_inl.h
223 silly gunzTarPerm modified mode [ 'nan_persistent_pre_12_inl.h', 436, 420 ]
224 silly gunzTarPerm extractEntry nan_private.h
225 silly gunzTarPerm modified mode [ 'nan_private.h', 436, 420 ]
226 silly gunzTarPerm extractEntry nan_string_bytes.h
227 silly gunzTarPerm modified mode [ 'nan_string_bytes.h', 436, 420 ]
228 silly gunzTarPerm extractEntry nan_typedarray_contents.h
229 silly gunzTarPerm modified mode [ 'nan_typedarray_contents.h', 436, 420 ]
230 silly gunzTarPerm extractEntry src/CanvasGradient.cc
231 silly gunzTarPerm extractEntry src/CanvasGradient.h
232 silly gunzTarPerm extractEntry src/CanvasPattern.cc
233 silly gunzTarPerm extractEntry src/CanvasPattern.h
234 silly gunzTarPerm extractEntry nan_weak.h
235 silly gunzTarPerm modified mode [ 'nan_weak.h', 436, 420 ]
236 silly gunzTarPerm extractEntry nan.h
237 silly gunzTarPerm modified mode [ 'nan.h', 436, 420 ]
238 silly gunzTarPerm extractEntry src/CanvasRenderingContext2d.cc
239 silly gunzTarPerm extractEntry src/CanvasRenderingContext2d.h
240 silly gunzTarPerm extractEntry README.md
241 silly gunzTarPerm modified mode [ 'README.md', 436, 420 ]
242 silly gunzTarPerm extractEntry doc/asyncworker.md
243 silly gunzTarPerm modified mode [ 'doc/asyncworker.md', 436, 420 ]
244 silly gunzTarPerm extractEntry doc/buffers.md
245 silly gunzTarPerm modified mode [ 'doc/buffers.md', 436, 420 ]
246 silly gunzTarPerm extractEntry doc/callback.md
247 silly gunzTarPerm modified mode [ 'doc/callback.md', 436, 420 ]
248 silly gunzTarPerm extractEntry src/closure.h
249 silly gunzTarPerm extractEntry src/color.cc
250 silly gunzTarPerm extractEntry doc/converters.md
251 silly gunzTarPerm modified mode [ 'doc/converters.md', 436, 420 ]
252 silly gunzTarPerm extractEntry doc/errors.md
253 silly gunzTarPerm modified mode [ 'doc/errors.md', 436, 420 ]
254 silly gunzTarPerm extractEntry src/color.h
255 silly gunzTarPerm extractEntry src/FontFace.cc
256 silly gunzTarPerm extractEntry doc/json.md
257 silly gunzTarPerm modified mode [ 'doc/json.md', 436, 420 ]
258 silly gunzTarPerm extractEntry doc/maybe_types.md
259 silly gunzTarPerm modified mode [ 'doc/maybe_types.md', 436, 420 ]
260 silly gunzTarPerm extractEntry src/FontFace.h
261 silly gunzTarPerm extractEntry src/Image.cc
262 silly gunzTarPerm extractEntry doc/methods.md
263 silly gunzTarPerm modified mode [ 'doc/methods.md', 436, 420 ]
264 silly gunzTarPerm extractEntry doc/new.md
265 silly gunzTarPerm modified mode [ 'doc/new.md', 436, 420 ]
266 silly gunzTarPerm extractEntry src/Image.h
267 silly gunzTarPerm extractEntry src/ImageData.cc
268 silly gunzTarPerm extractEntry src/ImageData.h
269 silly gunzTarPerm extractEntry src/init.cc
270 silly gunzTarPerm extractEntry src/JPEGStream.h
271 silly gunzTarPerm extractEntry src/PNG.h
272 silly gunzTarPerm extractEntry src/Point.h
273 silly gunzTarPerm extractEntry util/has_lib.sh
274 silly gunzTarPerm extractEntry doc/node_misc.md
275 silly gunzTarPerm modified mode [ 'doc/node_misc.md', 436, 420 ]
276 silly gunzTarPerm extractEntry doc/object_wrappers.md
277 silly gunzTarPerm modified mode [ 'doc/object_wrappers.md', 436, 420 ]
278 silly gunzTarPerm extractEntry doc/persistent.md
279 silly gunzTarPerm modified mode [ 'doc/persistent.md', 436, 420 ]
280 silly gunzTarPerm extractEntry doc/scopes.md
281 silly gunzTarPerm modified mode [ 'doc/scopes.md', 436, 420 ]
282 silly gunzTarPerm extractEntry doc/script.md
283 silly gunzTarPerm modified mode [ 'doc/script.md', 436, 420 ]
284 silly gunzTarPerm extractEntry doc/string_bytes.md
285 silly gunzTarPerm modified mode [ 'doc/string_bytes.md', 436, 420 ]
286 silly gunzTarPerm extractEntry doc/v8_internals.md
287 silly gunzTarPerm modified mode [ 'doc/v8_internals.md', 436, 420 ]
288 silly gunzTarPerm extractEntry doc/v8_misc.md
289 silly gunzTarPerm modified mode [ 'doc/v8_misc.md', 436, 420 ]
290 silly gunzTarPerm extractEntry tools/1to2.js
291 silly gunzTarPerm modified mode [ 'tools/1to2.js', 509, 493 ]
292 silly gunzTarPerm extractEntry tools/package.json
293 silly gunzTarPerm modified mode [ 'tools/package.json', 436, 420 ]
294 silly gunzTarPerm extractEntry tools/README.md
295 silly gunzTarPerm modified mode [ 'tools/README.md', 436, 420 ]
296 silly gentlyRm /home/krm/dev/mimer-game-2018/tools/node_modules/.staging/canvas-2de4a29b/node_modules is being purged
297 verbose gentlyRm don't care about contents; nuking /home/krm/dev/mimer-game-2018/tools/node_modules/.staging/canvas-2de4a29b/node_modules
298 silly gentlyRm /home/krm/dev/mimer-game-2018/tools/node_modules/.staging/nan-d8763590/node_modules is being purged
299 verbose gentlyRm don't care about contents; nuking /home/krm/dev/mimer-game-2018/tools/node_modules/.staging/nan-d8763590/node_modules
300 silly doParallel preinstall 2
301 silly preinstall nan@2.10.0 /home/krm/dev/mimer-game-2018/tools/node_modules/.staging/nan-d8763590
302 info lifecycle nan@2.10.0~preinstall: nan@2.10.0
303 silly preinstall canvas@1.6.10 /home/krm/dev/mimer-game-2018/tools/node_modules/.staging/canvas-2de4a29b
304 info lifecycle canvas@1.6.10~preinstall: canvas@1.6.10
305 silly lifecycle nan@2.10.0~preinstall: no script for preinstall, continuing
306 silly lifecycle canvas@1.6.10~preinstall: no script for preinstall, continuing
307 silly doReverseSerial remove 0
308 silly doSerial move 0
309 silly doSerial finalize 2
310 silly finalize /home/krm/dev/mimer-game-2018/tools/node_modules/nan
311 silly finalize /home/krm/dev/mimer-game-2018/tools/node_modules/canvas
312 silly doSerial build 2
313 silly build nan@2.10.0
314 info linkStuff nan@2.10.0
315 silly linkStuff nan@2.10.0 has /home/krm/dev/mimer-game-2018/tools/node_modules as its parent node_modules
316 verbose linkBins nan@2.10.0
317 verbose linkMans nan@2.10.0
318 silly build canvas@1.6.10
319 info linkStuff canvas@1.6.10
320 silly linkStuff canvas@1.6.10 has /home/krm/dev/mimer-game-2018/tools/node_modules as its parent node_modules
321 verbose linkBins canvas@1.6.10
322 verbose linkMans canvas@1.6.10
323 silly doSerial global-link 0
324 silly doParallel update-linked 0
325 silly doSerial install 2
326 silly install nan@2.10.0 /home/krm/dev/mimer-game-2018/tools/node_modules/.staging/nan-d8763590
327 info lifecycle nan@2.10.0~install: nan@2.10.0
328 silly lifecycle nan@2.10.0~install: no script for install, continuing
329 silly install canvas@1.6.10 /home/krm/dev/mimer-game-2018/tools/node_modules/.staging/canvas-2de4a29b
330 info lifecycle canvas@1.6.10~install: canvas@1.6.10
331 verbose lifecycle canvas@1.6.10~install: unsafe-perm in lifecycle true
332 verbose lifecycle canvas@1.6.10~install: PATH: /usr/local/lib/node_modules/npm/bin/node-gyp-bin:/home/krm/dev/mimer-game-2018/tools/node_modules/canvas/node_modules/.bin:/home/krm/dev/mimer-game-2018/tools/node_modules/.bin:/usr/local/bin:/home/krm/dev/balder-os-pre/tools:/home/krm/bin:/home/krm/bin:/home/krm/.local/bin:/usr/local/sbin:/usr/local/bin:/usr/sbin:/usr/bin:/sbin:/bin:/usr/games:/usr/local/games:/snap/bin
333 verbose lifecycle canvas@1.6.10~install: CWD: /home/krm/dev/mimer-game-2018/tools/node_modules/canvas
334 silly lifecycle canvas@1.6.10~install: Args: [ '-c', 'node-gyp rebuild' ]
335 silly lifecycle canvas@1.6.10~install: Returned: code: 1  signal: null
336 info lifecycle canvas@1.6.10~install: Failed to exec install script
337 verbose unlock done using /home/krm/.npm/_locks/staging-094b24b0207ef2cc.lock for /home/krm/dev/mimer-game-2018/tools/node_modules/.staging
338 silly rollbackFailedOptional Starting
339 silly rollbackFailedOptional Finishing
340 silly runTopLevelLifecycles Starting
341 silly runTopLevelLifecycles Finishing
342 silly install printInstalled
343 verbose stack Error: canvas@1.6.10 install: `node-gyp rebuild`
343 verbose stack Exit status 1
343 verbose stack     at EventEmitter.<anonymous> (/usr/local/lib/node_modules/npm/lib/utils/lifecycle.js:245:16)
343 verbose stack     at emitTwo (events.js:106:13)
343 verbose stack     at EventEmitter.emit (events.js:191:7)
343 verbose stack     at ChildProcess.<anonymous> (/usr/local/lib/node_modules/npm/lib/utils/spawn.js:24:14)
343 verbose stack     at emitTwo (events.js:106:13)
343 verbose stack     at ChildProcess.emit (events.js:191:7)
343 verbose stack     at maybeClose (internal/child_process.js:852:16)
343 verbose stack     at Process.ChildProcess._handle.onexit (internal/child_process.js:215:5)
344 verbose pkgid canvas@1.6.10
345 verbose cwd /home/krm/dev/mimer-game-2018/tools
346 error Linux 4.8.0-53-generic
347 error argv "/usr/local/bin/node" "/usr/local/bin/npm" "install"
348 error node v6.2.2
349 error npm  v3.9.5
350 error code ELIFECYCLE
351 error canvas@1.6.10 install: `node-gyp rebuild`
351 error Exit status 1
352 error Failed at the canvas@1.6.10 install script 'node-gyp rebuild'.
352 error Make sure you have the latest version of node.js and npm installed.
352 error If you do, this is most likely a problem with the canvas package,
352 error not with npm itself.
352 error Tell the author that this fails on your system:
352 error     node-gyp rebuild
352 error You can get information on how to open an issue for this project with:
352 error     npm bugs canvas
352 error Or if that isn't available, you can get their info via:
352 error     npm owner ls canvas
352 error There is likely additional logging output above.
353 verbose exit [ 1, true ]
